{
    "KPackageStructure": "KWin/Effect",
    "KPlugin": {
        "Authors": [
            {
                "Email": "l.lunak@kde.org, kde@privat.broulik.de, mgraesslin@kde.org",
                "Name": "Lubos Lunak, Kai Uwe Broulik, Martin Gräßlin",
                "Name[ar]": "لوبوس لوناك، كاي أووي بروتيك، مارتن جراجلين",
                "Name[be]": "Lubos Lunak, Kai Uwe Broulik, Martin Gräßlin",
                "Name[bg]": "Lubos Lunak, Kai Uwe Broulik, Martin Gräßlin",
                "Name[ca@valencia]": "Lubos Lunak, Kai Uwe Broulik, Martin Gräßlin",
                "Name[ca]": "Lubos Lunak, Kai Uwe Broulik, Martin Gräßlin",
                "Name[cs]": "Lubos Lunak, Kai Uwe Broulik, Martin Gräßlin",
                "Name[de]": "Lubos Lunak, Kai Uwe Broulik, Martin Gräßlin",
                "Name[en_GB]": "Lubos Lunak, Kai Uwe Broulik, Martin Gräßlin",
                "Name[eo]": "Lubos Lunak, Kai Uwe Broulik, Martin Gräßlin",
                "Name[es]": "Lubos Lunak, Kai Uwe Broulik, Martin Gräßlin",
                "Name[et]": "Lubos Lunak, Kai Uwe Broulik, Martin Gräßlin",
                "Name[eu]": "Lubos Lunak, Kai Uwe Broulik, Martin Gräßlin",
                "Name[fi]": "Lubos Lunak, Kai Uwe Broulik, Martin Gräßlin",
                "Name[fr]": "Lubos Lunak, Kai Uwe Broulik, Martin Gräßlin",
                "Name[ia]": "Lubos Lunak, Kai Uwe Broulik, Martin Gräßlin",
                "Name[it]": "Lubos Lunak, Kai Uwe Broulik, Martin Gräßlin",
                "Name[ja]": "Lubos Lunak, Kai Uwe Broulik, Martin Gräßlin",
                "Name[ka]": "Lubos Lunak, Kai Uwe Broulik, Martin Gräßlin",
                "Name[ko]": "Lubos Lunak, Kai Uwe Broulik, Martin Gräßlin",
                "Name[nl]": "Lubos Lunak, Kai Uwe Broulik, Martin Gräßlin",
                "Name[nn]": "Lubos Lunak, Kai Uwe Broulik, Martin Gräßlin",
                "Name[pl]": "Lubos Lunak, Kai Uwe Broulik, Martin Gräßlin",
                "Name[pt]": "Lubos Lunak, Kai Uwe Broulik, Martin Gräßlin",
                "Name[ru]": "Lubos Lunak, Kai Uwe Broulik, Martin Gräßlin",
                "Name[sk]": "Lubos Lunak, Kai Uwe Broulik, Martin Gräßlin",
                "Name[sl]": "Lubos Lunak, Kai Uwe Broulik, Martin Gräßlin",
                "Name[ta]": "லூபோசு லுனாக்கு, காய் ஊவே புரோலிக்கு, மார்ட்டின் கிராஸ்லின்",
                "Name[tr]": "Luboš Luňák, Kai Uwe Broulik, Martin Gräßlin",
                "Name[uk]": "Lubos Lunak, Kai Uwe Broulik, Martin Gräßlin",
                "Name[vi]": "Lubos Lunak, Kai Uwe Broulik, Martin Gräßlin",
                "Name[x-test]": "xxLubos Lunak, Kai Uwe Broulik, Martin Gräßlinxx",
                "Name[zh_CN]": "Lubos Lunak, Kai Uwe Broulik, Martin Gräßlin",
                "Name[zh_TW]": "Lubos Lunak, Kai Uwe Broulik, Martin Gräßlin"
            }
        ],
        "Category": "Appearance",
        "Description": "Smoothly fade to the desktop when logging in",
        "Description[ar]": "اظهار سطح المكتب بنعومة عند الولوج",
        "Description[be]": "Плаўнае зацямненне працоўнага стала падчас уваходу",
        "Description[bg]": "Плавен преход към работния плот при влизане",
        "Description[ca@valencia]": "Transició suau a l'escriptori en connectar-se",
        "Description[ca]": "Transició suau a l'escriptori en connectar-se",
        "Description[cs]": "Plynule zobrazit plochu po přihlášení",
        "Description[de]": "Blendet die Arbeitsfläche nach der Anmeldung langsam ein",
        "Description[en_GB]": "Smoothly fade to the desktop when logging in",
        "Description[eo]": "Glate dissolvi al la labortablo dum ensaluto",
        "Description[es]": "Desvanecimiento suave para mostrar el escritorio al iniciar sesión",
        "Description[et]": "Töölaua sujuv ilmumine sisselogimisel",
        "Description[eu]": "Emeki desagertu mahaigainerantz saio-hastean",
        "Description[fi]": "Häivytä kirjauduttaessa pehmeästi työpöydälle",
        "Description[fr]": "Effectuer un dégradé progressif vers le bureau lors de la connexion",
        "Description[ia]": "Dulcemente pallidi le scriptorio quando tu accede in identification",
        "Description[it]": "Dissolvenza graduale del desktop all'accesso",
        "Description[ja]": "ログイン時にデスクトップを滑らかに表示します",
        "Description[ka]": "შესვლისას სამუშაო მაგიდაზე რბილი გადასვლა",
        "Description[ko]": "로그인할 때 부드럽게 바탕 화면을 보여 줍니다",
        "Description[nl]": "Laat het opstartscherm vervagen naar het opkomende bureaublad tijdens het aanmelden",
        "Description[nn]": "Ton inn skrivebordet ved innlogging",
        "Description[pl]": "Płynne rozjaśnianie do pulpitu podczas logowania",
        "Description[pt]": "Desvanecer suavemente para o ecrã após a autenticação",
        "Description[ru]": "Плавное проявление рабочего стола при входе в систему",
        "Description[sk]": "Plynulé prelínanie na plochu pri prihlasovaní",
        "Description[sl]": "Ob prijavi gladko prelije na namizje",
        "Description[ta]": "அமர்வில் நுழையும்போது பணிமேடையின் ஒளிபுகாமையை படிப்படியாக உயர்த்தி அதைக் காட்டும்",
        "Description[tr]": "Oturum açarken masaüstüne pürüzsüzce geçiş yap",
        "Description[uk]": "Плавна поява стільниці під час входу",
        "Description[vi]": "Làm mờ dần sang bàn làm việc một cách êm dịu khi đăng nhập",
        "Description[x-test]": "xxSmoothly fade to the desktop when logging inxx",
        "Description[zh_CN]": "登录时平滑地过渡到桌面",
        "Description[zh_TW]": "登入時平順地淡入桌面",
        "EnabledByDefault": true,
        "Icon": "preferences-system-windows-effect-login",
        "Id": "login",
        "License": "GPL",
        "Name": "Login",
        "Name[ar]": "ولوج",
        "Name[be]": "Увайсці",
        "Name[bg]": "Вход",
        "Name[ca@valencia]": "Inici de sessió",
        "Name[ca]": "Inici de sessió",
        "Name[cs]": "Přihlášení",
        "Name[de]": "Anmeldung",
        "Name[en_GB]": "Login",
        "Name[eo]": "Ensaluti",
        "Name[es]": "Inicio de sesión",
        "Name[et]": "Sisselogimine",
        "Name[eu]": "Saio-hastea",
        "Name[fi]": "Kirjaudu",
        "Name[fr]": "Se connecter",
        "Name[ia]": "Accesso de identification",
        "Name[it]": "Accedi",
        "Name[ja]": "ログイン",
        "Name[ka]": "შესვლა",
        "Name[ko]": "로그인",
        "Name[nl]": "Aanmelden",
        "Name[nn]": "Innlogging",
        "Name[pl]": "Logowanie",
        "Name[pt]": "Arranque",
        "Name[pt_BR]": "Início de sessão",
        "Name[ru]": "Вход в систему",
        "Name[sk]": "Prihlásenie",
        "Name[sl]": "Prijava",
        "Name[ta]": "நுழைவு",
        "Name[tr]": "Oturumu Aç",
        "Name[uk]": "Вхід",
        "Name[vi]": "Đăng nhập",
        "Name[x-test]": "xxLoginxx",
        "Name[zh_CN]": "登录渐变动画",
        "Name[zh_TW]": "登入"
    },
    "X-KDE-ConfigModule": "kcm_kwin4_genericscripted",
    "X-KDE-Ordering": 40,
    "X-KWin-Config-TranslationDomain": "kwin",
    "X-Plasma-API": "javascript"
}
