{
    "KPackageStructure": "KWin/Effect",
    "KPlugin": {
        "Authors": [
            {
                "Email": "user@example.com",
                "Name": "Real Name",
                "Name[ca@valencia]": "Nom real",
                "Name[ca]": "Nom real",
                "Name[es]": "Nombre real",
                "Name[eu]": "Benetako izena",
                "Name[fr]": "Nom réel",
                "Name[ia]": "Nomine real",
                "Name[ka]": "ნამდვილი სახელი",
                "Name[nl]": "Echte naam",
                "Name[pl]": "Rzeczywista nazwa",
                "Name[sl]": "Pravo ime",
                "Name[ta]": "உண்மையான பெயர்",
                "Name[tr]": "Gerçek Adı",
                "Name[uk]": "Справжнє ім'я",
                "Name[x-test]": "xxReal Namexx",
                "Name[zh_TW]": "Real Name"
            }
        ],
        "Category": "Appearance",
        "Description": "Quick Effect",
        "Description[ca@valencia]": "Efecte ràpid",
        "Description[ca]": "Efecte ràpid",
        "Description[es]": "Efecto rápido",
        "Description[eu]": "Efektu azkarra",
        "Description[fr]": "Effet rapide",
        "Description[ia]": "Effecto Rapide",
        "Description[ka]": "სწრაფი ეფექტი",
        "Description[nl]": "Snel-effect",
        "Description[pl]": "Szybki Efekt",
        "Description[sl]": "Hitri učinek",
        "Description[tr]": "Tez Efekt",
        "Description[uk]": "Швидкий ефект",
        "Description[x-test]": "xxQuick Effectxx",
        "Description[zh_TW]": "快速效果",
        "EnabledByDefault": true,
        "Id": "quick-effect",
        "License": "GPL",
        "Name": "Quick Effect",
        "Name[ca@valencia]": "Efecte ràpid",
        "Name[ca]": "Efecte ràpid",
        "Name[es]": "Efecto rápido",
        "Name[eu]": "Efektu azkarra",
        "Name[fr]": "Effet rapide",
        "Name[ia]": "Effecto Rapide",
        "Name[ka]": "სწრაფი ეფექტი",
        "Name[nl]": "Snel-effect",
        "Name[pl]": "Szybki Efekt",
        "Name[sl]": "Hitri učinek",
        "Name[tr]": "Tez Efekt",
        "Name[uk]": "Швидкий ефект",
        "Name[x-test]": "xxQuick Effectxx",
        "Name[zh_TW]": "快速效果"
    },
    "X-KDE-ConfigModule": "kcm_kwin4_genericscripted",
    "X-KDE-Ordering": 60,
    "X-Plasma-API": "declarativescript"
}
